{
	"extends": "tslint:recommended",
	"rules": {
		"comment-format": [false],
		"indent": [
			true,
			"tabs",
			4
		],
		"max-line-length": [false],
		"member-access": [false],
		"no-string-literal": [false],
		"object-literal-sort-keys": [false],
		"one-line": [true,
			"check-open-brace",
			"check-whitespace"
		],
		"only-arrow-functions": [false],
		"ordered-imports": [false],
		"trailing-comma": [true, {
			"singleline": "never",
			"multiline": "never"
		}]
	}
}
